<svg xmlns="http://www.w3.org/2000/svg" width="18" height="21" viewBox="0 0 18 21">
    <g fill="none" fill-rule="evenodd">
        <g fill="#0691B7" fill-rule="nonzero">
            <g>
                <g>
                    <g>
                        <path d="M9.424 0h-.848L0 20.272l.026.01h2.288l1.717-4.056c3.566 1.202 7.431 1.182 10.985-.057l1.74 4.113h1.218l.026-.01L9.424 0zm.017 16.347c-1.737 0-3.463-.281-5.11-.83L9.535 3.213l5.182 12.248c-1.697.586-3.48.885-5.276.885z" transform="translate(-578 -344) translate(540 163) translate(18 165) translate(20 16)"/>
                    </g>
                </g>
            </g>
        </g>
    </g>
</svg>
